<?xml version="1.0" encoding="utf-8"?>
<!-- Generator: Adobe Illustrator 24.1.3, SVG Export Plug-In . SVG Version: 6.00 Build 0)  -->
<svg version="1.1" id="Calque_1" xmlns="http://www.w3.org/2000/svg" xmlns:xlink="http://www.w3.org/1999/xlink" x="0px" y="0px"
	 viewBox="0 0 415.22 295.99" style="enable-background:new 0 0 415.22 295.99;" xml:space="preserve">
<style type="text/css">
	.st0{clip-path:url(#SVGID_2_);}
	.st1{clip-path:url(#SVGID_4_);fill:#E0F2FD;}
	.st2{clip-path:url(#SVGID_6_);}
	.st3{clip-path:url(#SVGID_8_);fill:#E0F2FD;}
	.st4{clip-path:url(#SVGID_10_);fill:#E0F2FD;}
	.st5{fill:#0C5EA9;}
	.st6{fill:#FFFFFF;}
	.st7{fill:#BCE4FA;}
	.st8{fill:#13395D;}
	.st9{fill:#F4A59F;}
	.st10{fill:#E40B30;}
</style>
<g>
	<g>
		<g>
			<defs>
				<rect id="SVGID_1_" x="15.73" y="286.12" width="114.06" height="7.27"/>
			</defs>
			<clipPath id="SVGID_2_">
				<use xlink:href="#SVGID_1_"  style="overflow:visible;"/>
			</clipPath>
			<g class="st0">
				<g>
					<g>
						<defs>
							<rect id="SVGID_3_" x="15.73" y="286.12" width="114.06" height="7.27"/>
						</defs>
						<clipPath id="SVGID_4_">
							<use xlink:href="#SVGID_3_"  style="overflow:visible;"/>
						</clipPath>
						<path class="st1" d="M16.73,289.75c0,0,25.08,2.64,56.03,2.64c30.94,0,56.03-2.64,56.03-2.64s-25.08-2.63-56.03-2.63
							C41.82,287.12,16.73,289.75,16.73,289.75"/>
					</g>
				</g>
			</g>
		</g>
	</g>
</g>
<g>
	<g>
		<g>
			<defs>
				<rect id="SVGID_5_" x="301.16" y="286.12" width="114.06" height="7.27"/>
			</defs>
			<clipPath id="SVGID_6_">
				<use xlink:href="#SVGID_5_"  style="overflow:visible;"/>
			</clipPath>
			<g class="st2">
				<g>
					<g>
						<defs>
							<rect id="SVGID_7_" x="301.16" y="286.12" width="114.06" height="7.27"/>
						</defs>
						<clipPath id="SVGID_8_">
							<use xlink:href="#SVGID_7_"  style="overflow:visible;"/>
						</clipPath>
						<path class="st3" d="M302.16,289.75c0,0,25.08,2.64,56.03,2.64c30.94,0,56.03-2.64,56.03-2.64s-25.09-2.63-56.03-2.63
							C327.24,287.12,302.16,289.75,302.16,289.75"/>
					</g>
				</g>
			</g>
		</g>
	</g>
</g>
<g>
	<g>
		<g>
			<defs>
				<rect id="SVGID_9_" x="139.27" y="285.26" width="190.95" height="10.73"/>
			</defs>
			<clipPath id="SVGID_10_">
				<use xlink:href="#SVGID_9_"  style="overflow:visible;"/>
			</clipPath>
			<path class="st4" d="M140.27,290.62c0,0,42.3,4.37,94.48,4.37s94.47-4.37,94.47-4.37s-42.3-4.36-94.47-4.36
				C182.57,286.26,140.27,290.62,140.27,290.62"/>
		</g>
	</g>
</g>
<path class="st5" d="M307.02,10.4v268.19c0,5.72-4.68,10.4-10.4,10.4H153.34c-5.72,0-10.4-4.68-10.4-10.4V10.4
	c0-5.72,4.68-10.4,10.4-10.4h143.27C302.34,0,307.02,4.68,307.02,10.4"/>
<path class="st6" d="M307.02,10.4v15.48H142.94V10.4c0-5.72,4.68-10.4,10.4-10.4h143.27C302.34,0,307.02,4.68,307.02,10.4"/>
<path class="st6" d="M307.02,263.11v15.48c0,5.72-4.68,10.4-10.4,10.4H153.34c-5.72,0-10.4-4.68-10.4-10.4v-15.48H307.02z"/>
<path class="st7" d="M236.84,276.12c0,3.18-2.6,5.78-5.78,5.78h-12.17c-3.18,0-5.78-2.6-5.78-5.78v-0.16c0-3.18,2.6-5.78,5.78-5.78
	h12.17c3.18,0,5.78,2.6,5.78,5.78V276.12z"/>
<path class="st7" d="M228.68,12.29c0,2.04-1.66,3.7-3.7,3.7s-3.7-1.66-3.7-3.7s1.66-3.7,3.7-3.7
	C227.02,8.6,228.68,10.25,228.68,12.29"/>
<path class="st6" d="M28.67,275.92l4.04-5.25l3.04,3.74l-3.38,5.71C29.86,279.94,29.25,277.16,28.67,275.92"/>
<polygon class="st8" points="29.42,274.9 26.86,275.97 25.08,277.81 27.25,279.99 28.58,280.34 30.67,285.89 36.41,289.14 
	36.91,288.16 34.12,285.05 33.57,279.35 29.76,278.19 "/>
<polygon class="st6" points="93.22,204.79 95.48,208.16 98.15,209.22 98.82,213.35 97.78,215.68 92.56,214.93 91.94,210.52 
	89.53,207.48 "/>
<g>
	<path class="st8" d="M72.2,186.62c4.95,12,17.89,22.35,17.89,22.35l5.2-2.74c-3.61-7.24-10.96-15.35-10.96-42.02
		c0-18.1-8.5-21.32-12.13-19.23C60.3,151.82,68.74,178.24,72.2,186.62"/>
	<path class="st8" d="M80.1,186.06c8.37,24.89,14.26,44.34,15.36,51.31c6.75,42.71,8.67,41.82,8.67,41.82l-6.02,4.12
		c-4.26-7.76-15.66-22.95-12.88-41.52c1.34-9.01-16.23-23.77-17.92-46.3L80.1,186.06z"/>
	<path class="st8" d="M67.47,141.48c-1.4-0.01-3.65,1.04-6.08,3.25c-6.66,6.06-2.63,21.1-1.35,32.51
		c1.55,13.83-2.65,17.17-3.71,22.11c-0.76,3.53,1.57,5.66,7.83,5.58c4.7-0.05,11.67-0.79,16.31-3.19
		c4.51-2.33,9.76-17.06,9.76-35.53C90.22,151.81,80.17,141.59,67.47,141.48"/>
	<path class="st6" d="M71.65,131.15c-2.28-0.36-2.36-4.02-1.29-5.23c1.06-1.2,1.9-3.06,3.24-0.88c-0.07-2.33-0.81-5.82-0.85-7.24
		c1.07,0.14,6.18-0.24,7.17-0.44c1.23,1.16,2.95,3.68,2.8,6.24c-0.07,1.35-0.09,0.69,1.26,3.15c0.56,1.02,0.99,2,0.99,2l-2.03,1.96
		c0,0,1.5,5.31,0.53,6.41c-0.98,1.1-4.24,1.8-5.73,1.35c0.04,1.42-1.2,6.26-1.2,6.26s-6.36-1.51-9.09-4.05
		c0.02-1.4,0.54-3.39,0.44-5.19C70.49,135.09,71.73,133.7,71.65,131.15"/>
	<path class="st8" d="M69.09,116.39c5.85-2.73,9.87-3,11.3-2.52c2.46,0.82-0.51,3.44-0.51,3.44c0.01,0.01,0.03,0.03,0.04,0.04
		c-0.99,0.21-4.91,1.45-5.98,1.3c1.87,2.1,0.9,6.48,0.97,8.8c-1.33-2.18-3.48-2.74-4.55-1.54c-1.07,1.21-0.21,4.55,2.07,4.91
		c0.08,2.56-1.94,4.26-4.53,4.67c-0.06-1.11-1-4.33-1.53-5.34C62.94,123.65,63.24,119.12,69.09,116.39"/>
	<path class="st9" d="M65.42,138.61l-1.59,3.91c0,0,11.4-0.1,15.69,4.77c-0.07-2.4-0.83-5.97-0.83-5.97L65.42,138.61z"/>
	<path class="st8" d="M74.55,124.23c0,0,2.34,5.65,4.37,6.75s4.03-0.28,4.03-0.28s2.85,2.38,2.51,5.79
		c-0.34,3.43-4.47,3.79-7.71,1.98c-0.27-4.37-2.84-11.01-2.84-11.01L74.55,124.23z"/>
	<path class="st8" d="M76.58,197.08c0,0-0.19,7.32-0.53,8.85c-1.62,7.23-6.73,28.71-12.22,37.93c-1.08,1.81-16.68,19.19-27.73,34.23
		l-5.14-5.16c5.95-17.4,8.41-21.74,21.84-31.08c5.07-3.53,5.52-17.21,5.52-30.72c0-8.04,1.77-14.47,1.77-14.47L76.58,197.08z"/>
	<path class="st6" d="M101.98,285.98l-2.04-4.17l3.15-2.84l2.51,3.45C105.06,284.87,103.28,285.58,101.98,285.98"/>
</g>
<polygon class="st8" points="100.83,284.42 101.53,287.12 103.1,289.14 105.56,287.3 106.1,286.04 109.74,284.19 115.95,279.57 
	115.05,278.93 105.85,280.96 104.14,284.56 "/>
<g>
	<path class="st10" d="M96.8,197.88c0.13,0,0.27,0.03,0.39,0.1l3.17,1.8l-0.73-3.57c-0.05-0.27,0.04-0.55,0.24-0.74l2.69-2.46
		l-3.62-0.41c-0.28-0.03-0.52-0.2-0.63-0.46l-1.51-3.32l-1.51,3.32c-0.11,0.25-0.35,0.43-0.63,0.46l-3.62,0.41l2.69,2.46
		c0.2,0.19,0.3,0.47,0.24,0.74l-0.73,3.57l3.17-1.8C96.53,197.92,96.67,197.88,96.8,197.88 M92.12,202.11
		c-0.16,0-0.33-0.05-0.46-0.15c-0.25-0.18-0.37-0.49-0.31-0.8l0.99-4.83L88.7,193c-0.23-0.21-0.31-0.53-0.22-0.83
		c0.1-0.29,0.35-0.5,0.66-0.54l4.9-0.55l2.04-4.49c0.13-0.28,0.41-0.46,0.72-0.46s0.59,0.18,0.72,0.46l2.04,4.49l4.9,0.55
		c0.31,0.03,0.57,0.24,0.66,0.54c0.1,0.29,0.01,0.62-0.22,0.83l-3.64,3.33l0.99,4.83c0.06,0.3-0.06,0.61-0.31,0.8
		c-0.25,0.18-0.58,0.2-0.85,0.05l-4.29-2.43l-4.29,2.43C92.39,202.08,92.26,202.11,92.12,202.11"/>
	<path class="st10" d="M72.69,193.02l2.69,2.46c0.2,0.19,0.29,0.47,0.24,0.74l-0.73,3.57l3.17-1.8c0.24-0.14,0.54-0.14,0.78,0
		l3.17,1.8l-0.73-3.57c-0.06-0.27,0.04-0.55,0.24-0.74l2.69-2.46l-3.62-0.41c-0.27-0.03-0.51-0.2-0.63-0.46l-1.51-3.32l-1.51,3.32
		c-0.12,0.25-0.35,0.43-0.63,0.46L72.69,193.02z M83.12,202.11c-0.13,0-0.27-0.03-0.39-0.1l-4.29-2.43l-4.29,2.43
		c-0.27,0.15-0.6,0.13-0.85-0.05s-0.37-0.49-0.31-0.79l0.99-4.83l-3.64-3.33c-0.23-0.21-0.31-0.53-0.22-0.83
		c0.1-0.29,0.35-0.5,0.66-0.54l4.9-0.55l2.04-4.49c0.13-0.28,0.41-0.46,0.72-0.46s0.59,0.18,0.72,0.46l2.04,4.49l4.9,0.55
		c0.31,0.03,0.57,0.25,0.66,0.54c0.1,0.29,0.01,0.62-0.22,0.83l-3.64,3.33l0.99,4.83c0.06,0.3-0.06,0.61-0.31,0.8
		C83.45,202.06,83.29,202.11,83.12,202.11"/>
	<path class="st10" d="M54.33,193.02l2.69,2.46c0.2,0.19,0.3,0.47,0.24,0.74l-0.73,3.57l3.17-1.8c0.24-0.14,0.54-0.14,0.78,0
		l3.17,1.8l-0.73-3.57c-0.06-0.27,0.04-0.55,0.24-0.74l2.69-2.46l-3.62-0.41c-0.28-0.03-0.52-0.2-0.63-0.46l-1.51-3.32l-1.51,3.32
		c-0.11,0.25-0.35,0.43-0.63,0.46L54.33,193.02z M64.77,202.11c-0.13,0-0.27-0.03-0.39-0.1l-4.29-2.43l-4.29,2.43
		c-0.27,0.15-0.6,0.13-0.85-0.05s-0.37-0.49-0.31-0.79l0.99-4.83l-3.64-3.33c-0.23-0.21-0.31-0.53-0.22-0.83
		c0.1-0.29,0.35-0.5,0.66-0.54l4.9-0.55l2.04-4.49c0.13-0.28,0.41-0.46,0.72-0.46s0.59,0.18,0.72,0.46l2.04,4.49l4.9,0.55
		c0.31,0.03,0.57,0.25,0.66,0.54c0.1,0.29,0.01,0.62-0.22,0.83l-3.64,3.33l0.99,4.83c0.06,0.3-0.06,0.61-0.31,0.8
		C65.09,202.06,64.93,202.11,64.77,202.11"/>
	<path class="st10" d="M41.73,197.88c0.13,0,0.27,0.03,0.39,0.1l3.17,1.8l-0.73-3.57c-0.06-0.27,0.04-0.55,0.24-0.74l2.69-2.46
		l-3.62-0.41c-0.27-0.03-0.51-0.2-0.63-0.46l-1.51-3.32l-1.51,3.32c-0.11,0.25-0.35,0.43-0.63,0.46l-3.62,0.41l2.69,2.46
		c0.2,0.19,0.3,0.47,0.24,0.74l-0.73,3.57l3.17-1.8C41.46,197.92,41.6,197.88,41.73,197.88 M37.06,202.11
		c-0.16,0-0.33-0.05-0.46-0.15c-0.25-0.18-0.37-0.49-0.31-0.8l0.99-4.83L33.64,193c-0.23-0.21-0.31-0.53-0.22-0.83
		c0.1-0.29,0.35-0.5,0.66-0.54l4.9-0.55l2.04-4.49c0.13-0.28,0.41-0.46,0.72-0.46s0.59,0.18,0.72,0.46l2.04,4.49l4.9,0.55
		c0.31,0.03,0.57,0.24,0.66,0.54c0.1,0.29,0.01,0.62-0.22,0.83l-3.64,3.33l0.99,4.83c0.06,0.3-0.06,0.61-0.31,0.8
		c-0.25,0.18-0.58,0.2-0.85,0.05l-4.29-2.43l-4.29,2.43C37.32,202.08,37.19,202.11,37.06,202.11"/>
	<path class="st10" d="M17.62,193.02l2.69,2.46c0.21,0.19,0.3,0.47,0.24,0.74l-0.73,3.57l3.17-1.8c0.24-0.14,0.54-0.14,0.78,0
		l3.17,1.8l-0.73-3.57c-0.06-0.27,0.04-0.55,0.24-0.74l2.69-2.46l-3.62-0.41c-0.28-0.03-0.51-0.2-0.63-0.46l-1.51-3.32l-1.51,3.32
		c-0.11,0.25-0.35,0.43-0.63,0.46L17.62,193.02z M28.06,202.11c-0.13,0-0.27-0.03-0.39-0.1l-4.29-2.43l-4.29,2.43
		c-0.27,0.15-0.6,0.13-0.85-0.05s-0.37-0.49-0.31-0.79l0.99-4.83l-3.64-3.33c-0.23-0.21-0.31-0.53-0.22-0.83
		c0.1-0.29,0.35-0.5,0.66-0.54l4.9-0.55l2.04-4.49c0.13-0.28,0.41-0.46,0.72-0.46s0.59,0.18,0.72,0.46l2.04,4.49l4.9,0.55
		c0.31,0.03,0.57,0.24,0.66,0.54c0.1,0.29,0.01,0.62-0.22,0.83l-3.64,3.33l0.99,4.83c0.06,0.3-0.06,0.61-0.31,0.79
		C28.38,202.06,28.22,202.11,28.06,202.11"/>
	<path class="st10" d="M113.61,213.12H39.99c-0.43,0-0.79-0.35-0.79-0.79c0-0.43,0.35-0.79,0.79-0.79h73.62
		c2.75,0,4.99-2.24,4.99-4.99v-24.86c0-2.75-2.24-4.99-4.99-4.99H6.57c-2.75,0-4.99,2.24-4.99,4.99v24.86
		c0,2.75,2.24,4.99,4.99,4.99h20.91c0.43,0,0.79,0.35,0.79,0.79s-0.35,0.79-0.79,0.79H6.57c-3.62,0-6.57-2.94-6.57-6.56V181.7
		c0-3.62,2.94-6.56,6.57-6.56h107.05c3.62,0,6.56,2.94,6.56,6.56v24.86C120.18,210.18,117.23,213.12,113.61,213.12"/>
	<path class="st10" d="M30.95,224.32c-0.05,0-0.1,0-0.15-0.01c-0.29-0.05-0.52-0.26-0.6-0.54l-3.47-11.2
		c-0.13-0.42,0.1-0.86,0.52-0.99s0.86,0.1,0.99,0.52l3.03,9.79l8.12-10.05c0.27-0.34,0.77-0.39,1.11-0.12
		c0.34,0.27,0.39,0.77,0.12,1.11l-9.05,11.2C31.41,224.21,31.18,224.32,30.95,224.32"/>
</g>
<polygon class="st6" points="47.72,207.92 48.95,219.56 53.03,219.56 56.35,218.05 56.29,215.16 54.46,212.78 52.67,212.05 
	52.26,208.47 "/>
<g>
	<path class="st8" d="M63.7,146.73c-5.38,1.65-16.65,18.17-17.31,41.59c-0.19,6.8,1.33,24.36,1.33,24.36l6.49-0.87
		c0-10.45,1.81-22.34,4.13-27.91c4.43-10.64,11.66-18.38,14.02-22.06C76.07,155.98,72.43,144.04,63.7,146.73"/>
	<path class="st10" d="M277.82,67.82c0.14,0,0.27,0.03,0.39,0.1l3.17,1.8l-0.73-3.57c-0.05-0.27,0.04-0.55,0.24-0.74l2.69-2.46
		l-3.62-0.41c-0.27-0.03-0.51-0.2-0.63-0.46l-1.51-3.32l-1.51,3.32c-0.11,0.25-0.35,0.43-0.63,0.46l-3.62,0.41l2.69,2.46
		c0.2,0.19,0.3,0.47,0.24,0.74l-0.73,3.57l3.17-1.8C277.55,67.85,277.69,67.82,277.82,67.82 M273.14,72.05
		c-0.16,0-0.33-0.05-0.46-0.15c-0.25-0.18-0.37-0.49-0.31-0.8l0.99-4.83l-3.64-3.33c-0.23-0.21-0.31-0.53-0.22-0.83
		c0.1-0.29,0.35-0.5,0.66-0.54l4.9-0.55l2.04-4.49c0.13-0.28,0.41-0.46,0.72-0.46s0.59,0.18,0.72,0.46l2.04,4.49l4.9,0.55
		c0.31,0.03,0.57,0.24,0.66,0.54c0.1,0.29,0.01,0.62-0.22,0.83l-3.64,3.33l0.99,4.83c0.06,0.3-0.06,0.61-0.31,0.8
		c-0.25,0.18-0.58,0.2-0.85,0.05l-4.29-2.43l-4.29,2.43C273.41,72.01,273.28,72.05,273.14,72.05"/>
	<path class="st10" d="M296.18,67.82c0.13,0,0.27,0.03,0.39,0.1l3.17,1.8l-0.73-3.57c-0.05-0.27,0.04-0.55,0.24-0.74l2.69-2.46
		l-3.62-0.41c-0.27-0.03-0.51-0.2-0.63-0.46l-1.51-3.32l-1.51,3.32c-0.11,0.25-0.35,0.43-0.63,0.46l-3.62,0.41l2.69,2.46
		c0.2,0.19,0.3,0.47,0.24,0.74l-0.73,3.57l3.17-1.8C295.91,67.85,296.04,67.82,296.18,67.82 M300.86,72.05
		c-0.13,0-0.27-0.03-0.39-0.1l-4.29-2.43l-4.29,2.43c-0.27,0.15-0.6,0.13-0.85-0.05c-0.25-0.18-0.37-0.49-0.31-0.8l0.99-4.83
		l-3.64-3.33c-0.23-0.21-0.31-0.53-0.22-0.83c0.1-0.29,0.35-0.5,0.66-0.54l4.9-0.55l2.04-4.49c0.13-0.28,0.41-0.46,0.72-0.46
		s0.59,0.18,0.72,0.46l2.04,4.49l4.9,0.55c0.31,0.03,0.57,0.24,0.66,0.54c0.1,0.29,0.01,0.62-0.22,0.83l-3.64,3.33l0.99,4.83
		c0.06,0.3-0.06,0.61-0.31,0.8C301.18,72,301.02,72.05,300.86,72.05"/>
	<path class="st10" d="M314.53,67.82c0.13,0,0.27,0.03,0.39,0.1l3.17,1.8l-0.73-3.57c-0.05-0.27,0.04-0.55,0.24-0.74l2.69-2.46
		l-3.62-0.41c-0.28-0.03-0.52-0.2-0.63-0.46l-1.51-3.32l-1.51,3.32c-0.11,0.25-0.35,0.43-0.63,0.46l-3.62,0.41l2.69,2.46
		c0.2,0.19,0.29,0.47,0.24,0.74l-0.73,3.57l3.17-1.8C314.27,67.85,314.4,67.82,314.53,67.82 M309.86,72.05
		c-0.16,0-0.33-0.05-0.46-0.15c-0.25-0.18-0.37-0.49-0.31-0.8l0.99-4.83l-3.64-3.33c-0.23-0.21-0.31-0.53-0.22-0.83
		c0.1-0.29,0.35-0.5,0.66-0.54l4.9-0.55l2.04-4.49c0.13-0.28,0.41-0.46,0.72-0.46s0.59,0.18,0.72,0.46l2.04,4.49l4.9,0.55
		c0.31,0.03,0.57,0.24,0.66,0.54c0.1,0.29,0.01,0.62-0.22,0.83L319,66.27l0.99,4.83c0.06,0.3-0.06,0.61-0.31,0.79
		s-0.58,0.2-0.85,0.05l-4.29-2.43l-4.29,2.43C310.12,72.01,309.99,72.05,309.86,72.05"/>
	<path class="st10" d="M327.13,62.95l2.69,2.46c0.21,0.19,0.3,0.47,0.24,0.74l-0.73,3.57l3.17-1.8c0.24-0.14,0.54-0.14,0.78,0
		l3.17,1.8l-0.73-3.57c-0.05-0.27,0.04-0.55,0.24-0.74l2.69-2.46l-3.62-0.41c-0.28-0.03-0.51-0.2-0.63-0.46l-1.51-3.32l-1.51,3.32
		c-0.11,0.25-0.35,0.43-0.63,0.46L327.13,62.95z M337.57,72.05c-0.13,0-0.27-0.03-0.39-0.1l-4.29-2.43l-4.29,2.43
		c-0.27,0.15-0.6,0.13-0.85-0.05c-0.25-0.18-0.37-0.49-0.31-0.8l0.99-4.83l-3.64-3.33c-0.23-0.21-0.31-0.53-0.22-0.83
		c0.09-0.29,0.35-0.5,0.66-0.54l4.9-0.55l2.04-4.49c0.13-0.28,0.41-0.46,0.72-0.46s0.59,0.18,0.72,0.46l2.04,4.49l4.9,0.55
		c0.31,0.03,0.57,0.24,0.66,0.54c0.09,0.29,0.01,0.62-0.22,0.83l-3.64,3.33l0.99,4.83c0.06,0.3-0.06,0.61-0.31,0.8
		C337.89,72,337.73,72.05,337.57,72.05"/>
	<path class="st10" d="M351.25,67.82c0.13,0,0.27,0.03,0.39,0.1l3.17,1.8l-0.73-3.57c-0.05-0.27,0.04-0.55,0.24-0.74l2.69-2.46
		l-3.62-0.41c-0.27-0.03-0.51-0.2-0.63-0.46l-1.51-3.32l-1.51,3.32c-0.11,0.25-0.35,0.43-0.63,0.46l-3.62,0.41l2.69,2.46
		c0.2,0.19,0.29,0.47,0.24,0.74l-0.73,3.57l3.17-1.8C350.98,67.85,351.11,67.82,351.25,67.82 M346.57,72.05
		c-0.16,0-0.33-0.05-0.46-0.15c-0.25-0.18-0.37-0.49-0.31-0.79l0.99-4.83l-3.64-3.33c-0.23-0.21-0.31-0.53-0.22-0.83
		c0.1-0.29,0.35-0.5,0.66-0.54l4.9-0.55l2.04-4.49c0.13-0.28,0.41-0.46,0.72-0.46s0.59,0.18,0.72,0.46l2.04,4.49l4.9,0.55
		c0.31,0.03,0.57,0.24,0.66,0.54c0.1,0.29,0.01,0.62-0.22,0.83l-3.64,3.33l0.99,4.83c0.06,0.3-0.06,0.61-0.31,0.79
		s-0.58,0.2-0.85,0.05l-4.29-2.43l-4.29,2.43C346.84,72.01,346.7,72.05,346.57,72.05"/>
	<path class="st10" d="M368.06,83.06h-20.91c-0.43,0-0.79-0.35-0.79-0.79s0.35-0.79,0.79-0.79h20.91c2.75,0,4.99-2.24,4.99-4.99
		V51.63c0-2.75-2.24-4.99-4.99-4.99H261.01c-2.75,0-4.99,2.24-4.99,4.99v24.86c0,2.75,2.24,4.99,4.99,4.99h73.62
		c0.43,0,0.79,0.35,0.79,0.79s-0.35,0.79-0.79,0.79h-73.62c-3.62,0-6.57-2.94-6.57-6.56V51.64c0-3.62,2.94-6.56,6.57-6.56h107.05
		c3.62,0,6.56,2.95,6.56,6.56V76.5C374.62,80.11,371.68,83.06,368.06,83.06"/>
	<path class="st10" d="M343.68,94.25c-0.24,0-0.46-0.1-0.61-0.29l-9.05-11.2c-0.27-0.34-0.22-0.83,0.12-1.11
		c0.34-0.27,0.84-0.22,1.11,0.12l8.12,10.05l3.03-9.79c0.13-0.42,0.57-0.65,0.99-0.52c0.42,0.13,0.65,0.57,0.52,0.99l-3.47,11.2
		c-0.09,0.28-0.32,0.49-0.6,0.54C343.78,94.25,343.73,94.25,343.68,94.25"/>
	<path class="st10" d="M234.68,133.64c0.15,0,0.3,0.04,0.42,0.12c0.05,0.03,5,3.16,8.65,3.16c0.48,0,0.91-0.05,1.29-0.16
		c2.77-0.79,3.19-6,3.12-7.94c-0.01-0.24,0.09-0.48,0.28-0.63c0.04-0.03,1.08-0.98,1.08-3.19c0-0.19-0.65-0.74-3.53-0.74
		c-2.64,0-5.6,0.47-5.63,0.47c-0.26,0.04-0.51-0.05-0.69-0.23c-0.18-0.19-0.26-0.45-0.2-0.7c0.47-2.31,0.86-6.39-0.07-7.52
		c-0.12-0.15-0.25-0.21-0.43-0.21s-0.3,0.05-0.41,0.17c-0.46,0.52-0.44,1.93-0.36,2.53c0.02,0.15-0.01,0.3-0.07,0.44l-2.79,5.88
		c-0.09,0.19-0.26,0.34-0.46,0.41l-3.76,1.24v7.22l3.49-0.32C234.63,133.64,234.66,133.64,234.68,133.64 M243.76,138.49
		c-3.68,0-8.19-2.6-9.27-3.26l-4.08,0.38c-0.22,0.02-0.44-0.05-0.6-0.2c-0.16-0.15-0.26-0.36-0.26-0.58v-8.66
		c0-0.34,0.22-0.64,0.54-0.75l3.98-1.31l2.55-5.37c-0.06-0.68-0.13-2.52,0.77-3.54c0.41-0.46,0.96-0.71,1.6-0.71
		c0.66,0,1.23,0.27,1.65,0.79c1.34,1.64,0.92,5.67,0.59,7.74c1.14-0.14,3.01-0.34,4.79-0.34c1.26,0,5.1,0,5.1,2.31
		c0,2.23-0.88,3.55-1.35,4.1c0,1.58-0.23,8.02-4.27,9.17C244.96,138.42,244.38,138.49,243.76,138.49"/>
	<path class="st10" d="M227.34,135.68h2.2v-9.76h-2.2V135.68z M230.34,137.26h-3.78c-0.43,0-0.79-0.35-0.79-0.79v-11.34
		c0-0.43,0.35-0.79,0.79-0.79h3.78c0.43,0,0.79,0.35,0.79,0.79v11.34C231.12,136.91,230.77,137.26,230.34,137.26"/>
	<path class="st10" d="M263.54,146.79h-19.96c-0.43,0-0.79-0.35-0.79-0.79s0.35-0.79,0.79-0.79h19.96c2.75,0,4.99-2.24,4.99-4.99
		v-24.85c0-2.75-2.24-4.99-4.99-4.99h-53.39c-2.75,0-4.99,2.24-4.99,4.99v24.86c0,2.75,2.24,4.99,4.99,4.99h20.91
		c0.43,0,0.79,0.35,0.79,0.79s-0.35,0.79-0.79,0.79h-20.91c-3.62,0-6.57-2.94-6.57-6.56v-24.87c0-3.62,2.94-6.57,6.57-6.57h53.39
		c3.62,0,6.56,2.95,6.56,6.57v24.86C270.1,143.85,267.16,146.79,263.54,146.79"/>
	<path class="st10" d="M234.53,157.99c-0.05,0-0.1,0-0.15-0.01c-0.29-0.05-0.52-0.26-0.6-0.54l-3.47-11.2
		c-0.13-0.42,0.1-0.86,0.52-0.99c0.42-0.13,0.86,0.1,0.98,0.52l3.03,9.79l8.12-10.05c0.27-0.34,0.77-0.39,1.11-0.12
		c0.34,0.27,0.39,0.77,0.12,1.11l-9.05,11.2C234.99,157.88,234.76,157.99,234.53,157.99"/>
	<path class="st8" d="M176.55,125.5c0,0-7.3-3.21-10.85,5.84c-3.55,9.06,4.69,15.93,3.77,18.29c7.33-10.92,2.25-13.32,3.26-18.92
		c0.51-2.84,3.64-4.26,3.64-4.26L176.55,125.5z"/>
	<path class="st6" d="M186.03,144.9l2.28-6.18c0,0,1.77-0.35,3.81-1.1s1.53-5.76,1.53-5.76l0.64-1.69c0,0-2.7-2.69-2.08-3.51
		c0.58-0.77-0.99-4.41-3.59-6.07c-0.99-0.01-6.86-1.07-7.43,9.47c-0.1,1.84-3.68,0.09-0.2,6.51c0.55,2.74-2.13,6.92-3.08,8.62
		C182.11,146.36,186.22,145.07,186.03,144.9"/>
	<path class="st9" d="M177.56,144.56l0.81-4.41l10.49,0.65l1.41,6.09C190.26,146.89,183.12,143.33,177.56,144.56"/>
	<path class="st6" d="M152.28,272.72c0.29,2.11-2.66,5.79,0.26,6.66l0.98-6.57c0,0,7.55-10.93,10.72-15.25
		c5.44-7.4,9.5-11.19,12.01-15c2.24-3.4,2.75-11.07,3.14-11.5c-1.91-1.04-6.09-0.05-8.13-1.89c0.31,4.32,0.73,7.05,0.26,7.91
		c-3.07,5.69-6.25,2.11-10.94,11.86c-2.95,6.12-8.55,21.02-8.59,21.27C152.43,270.6,152.14,271.75,152.28,272.72"/>
	<path class="st8" d="M148.96,271.96c0,0,0.91-1.11,1.39-1.18c0.51-0.07,1.64-0.55,1.64-0.55v-0.01c0.43,0.38,0.15,1.53,0.28,2.5
		c0.29,2.11-1.53,6.07,0.26,6.66l1.45,2.07l-2.66-1.64l-1.65-2.13c0,0,1.18-2.02-0.1-4.56l-2.15,2.81L148.96,271.96z"/>
	<path class="st6" d="M176.73,173.61c1.18,1.74,10.61,13.34,9.53,18.59s-6.63,2.34-7.18,1.53c-0.54-0.8-0.06-0.9,1.08-0.4
		c1.14,0.49,2.65-0.87,2.76-1.95c0.11-1.08-1.55,1.64-2.34,0.97c-0.79-0.68,1.73-2.87,2.87-2.67c-0.23-2.49-11.71-11.64-11.68-15.92
		C171.81,169.5,175.98,172.5,176.73,173.61"/>
	<path class="st9" d="M175.57,145.72c3.18-1.15,5.24,3.43,5.22,7.42c-0.03,3.99-3,13.91-3.58,17.12c-0.99,5.5-3.95,7.29-5.77,3.3
		C169.62,169.56,171.09,147.34,175.57,145.72"/>
	<path class="st6" d="M177.73,284.79c1.33,1.92,1.5,4.79,3.77,3.46l-2.79-5.28c0,0,2.03-20.97,2.35-25.91
		c0.27-4.2,2.06-15.58,5.91-25.82c-1.83,0.41-6.52,0.09-9.39-0.1c0.08,0.62-0.99,10.37-2.32,13.96c-0.86,2.31-2.86,4.88-2.79,11.99
		c0.09,8.72,3.26,25.21,3.26,25.21s-0.12,0.05-0.29,0.15C176.18,282.55,176.95,283.67,177.73,284.79"/>
	<path class="st6" d="M185.73,289.26h-0.03C185.71,289.26,185.72,289.26,185.73,289.26L185.73,289.26z"/>
	<path class="st8" d="M175.12,282.64L175.12,282.64c0.01-0.01,0.02-0.01,0.04-0.02l0.01-0.01l0,0c0.1-0.06,0.2-0.11,0.27-0.16
		c0.75-0.47,2.49,1.75,4.05,4.31c1.01,1.67,1.82,1.5,2,1.48l2.6,1.31h-2.04h-3.5c0,0-0.4-1.96-2.45-3.53l-0.26,3.53l-1.43-4.4
		C173.67,284.41,174.45,283.1,175.12,282.64"/>
	<path class="st8" d="M185.89,234.8c1.05-2.45,2.74-9.66,3.29-12.73c3.33-18.67,6.25-28.62,3.2-40.21
		c-4.41-0.33-9.51,0.28-11.06-0.66c-1.81,1.65-8.85,4.53-11.4,13.4c-2.31,8.03,0.18,16.26,1.65,38.89
		C174.5,234.23,184.2,235.25,185.89,234.8"/>
	<path class="st8" d="M187.65,133.15c-0.57-0.81-1.21-3.01-0.93-4.52c0.44-2.31,1.65-1,2.78-0.25c0.65-2.34-1.48-6.58-0.89-7.78
		c-0.18-0.11-0.37-0.22-0.56-0.31c-5.46-2.69-12.27,0.36-12.86,7.13c-0.26,2.94,0.71,4.58,3.58,7.51c0.9,0.92,1.82,2.34,3.72,2.36
		C184.33,137.3,186.12,135.76,187.65,133.15"/>
	<path class="st8" d="M197.64,163.8c2.44-2.33,3.88-5.56,2.44-8.07c-1.42-2.46-4.4-3.78-5.48-6.47c-3.34-8.35-11.69-6.18-16.07-5.32
		c-3.37,0.67-6.33,3.18-4.93,9.24c1.69,7.32,6.82,13.46,7.39,28.56c-0.03,0.03,0.95,0.88,0.91,0.91c1.56,0.94,10.49-0.74,10.46-0.81
		C195.36,174.95,198.17,167.53,197.64,163.8"/>
	<path class="st6" d="M210.43,132.44c7.58-10.17,10.94-18.46,10.94-18.46s-1.51-1.77-2.03-2.83s-0.86-1.04-0.79-1.44
		c0.08-0.45,0.65-0.43,1.48,1.11c0.83,1.54,0.7,0.42,0.7,0.42s-0.63-1.97,0.01-3.74c0.8-2.18,0.8-2.47,1.09-2.22
		c0.5,0.43-0.19,1.87-0.26,2.89c0.32-1.04,1.13-3.27,1.67-3.16c0.54,0.1,0.19,0.96,0.09,1.29c0.3-0.35,0.53-0.95,0.93-0.6
		c0.4,0.34-0.44,1.93-0.55,2.42c0.74-1.17,0.99-1.59,1.29-1.33c0.3,0.26-0.33,0.94-1.05,2.64c-0.47,1.13,0.2,2.8-0.04,4.03
		c-0.24,1.24-3.81,14.22-9.65,21.44C213.54,135.79,209.75,133.35,210.43,132.44"/>
	<path class="st9" d="M190.71,142.03c-3.79,0.85-4.52,6.2-0.96,8.67c5.02,3.5,15.33-4.37,17.95-6.86c4.94-4.71,7.3-8.45,7.74-10.94
		c0.15-0.83-1.62-3.19-2.22-3.2C209.18,129.6,204.48,138.94,190.71,142.03"/>
	<path class="st6" d="M356.33,116.52c-0.89-2.47-2.5,2.45-2.5,2.45s-1.85-7.23,0.37-8.15c-0.67-0.05-1.34-0.15-1.9-0.35
		c-1.33,1.98-1.78,4.92-1.46,6.34c0.32,1.42-0.04,1.41-0.31,2.6c-0.21,0.9,0.7,3.92,0.83,5.44c0.4,4.52,4.14,3.38,4.14,3.38
		l1.73,3.35c0,0,0.47,0.18,3.25,0.38c4.82,0.35,6.7-0.42,6.32-1.81c-0.5-1.79-1.91-3.3-1.86-4.52c-0.45,0.36-0.99,0.61-1.63,0.63
		C360,126.38,357.22,118.99,356.33,116.52"/>
	<path class="st8" d="M366.6,110.42c-1-1.78-3.31-2.61-5.77-2.79c-0.5-0.04-1.01-0.05-1.51-0.03c0.58-0.02,1.23-0.02,1.77,0.02l0,0
		c0,0-10.22-2.15-10.11,1.17c0.03,0.83,0.57,1.34,1.34,1.64c-0.01,0.01-0.02,0.03-0.03,0.04c0.56,0.2,1.23,0.31,1.9,0.35
		c-2.21,0.92-0.37,8.15-0.37,8.15s1.62-4.93,2.5-2.45c0.89,2.47,1.43,5.67,0.19,6.18c1.29,1.84,3.48,3.68,6.78,3.57
		c0.65-0.02,1.18-0.27,1.63-0.63c0.02-0.42,0.08-0.81,0.2-1.14c0.25-0.7,0.77-1.51,1.3-2.33c0.33-0.52,0.67-1.03,0.93-1.53
		C369.03,117.57,368.76,114.25,366.6,110.42"/>
	<path class="st9" d="M354.78,133.3l1.48-3.42c0,0,5.72-3.74,11.76-1.72c0.74,1.31,1.58,3.55,1.58,3.55L354.78,133.3z"/>
	<path class="st8" d="M343.64,124.04c14.32,7.88,18.72,6.5,25.9,7.12c7.18,0.61,10.27,3.22,12.45,7.55
		c1.79,3.56,3.28,7.09,0.77,18.36c-2.51,11.26-8.35,14.35-3.09,26.36c5.07,11.58,5.09,20.01,5.09,20.01
		c-8.81,5.37-29.79-0.82-36.91-6.01c-0.3-9.2-7.84-29.85-9.14-46.52C338.21,144.57,339.56,121.8,343.64,124.04"/>
	<path class="st6" d="M322.66,88.33l-0.74-1.85c0,0,1.46-1.38,2.35-2.57c0.89-1.19,1.31-1.07,1.31-1.59c0-0.58-0.7-0.68-2.09,1.02
		s-0.97,0.36-0.97,0.36s1.25-2.28,0.87-4.62c-0.46-2.88-0.4-3.24-0.82-3c-0.71,0.41-0.21,2.36-0.36,3.63
		c-0.15-1.35-0.61-4.3-1.31-4.3s-0.47,1.14-0.43,1.58c-0.29-0.51-0.43-1.3-1-0.97s0.08,2.49,0.1,3.12c-0.64-1.62-0.84-2.2-1.27-1.95
		s0.19,1.24,0.67,3.51c0.32,1.51-0.92,3.4-0.91,4.99c0,1.58,1.12,4.03,1.12,4.03L322.66,88.33z"/>
	<path class="st8" d="M358.09,142.98c2.95-6.36-5.74-11.17-19.63-28.88c-9.1-11.59-15.71-25.81-15.71-25.81l-5.95,1.11
		c2.4,14.58,6.18,25.05,9.62,32.79C337.72,147.58,352.72,154.58,358.09,142.98"/>
	<path class="st8" d="M352.13,197.43c0,0,11.6,45.8,13.69,68.77c0.63,6.92,1.98,18.51,1.98,18.51l6.94-0.23
		c0,0,4.88-16.02,0.74-45.54c-3.09-22.01-4.78-35.44-4.78-35.44L352.13,197.43z"/>
	<path class="st6" d="M373.55,286.19l-0.05-1.68l-3.75,0.12l-0.27,0.93C371.19,286.97,373.03,286.6,373.55,286.19"/>
	<path class="st8" d="M369.58,285.52l-0.01,0.06l-9.66,4.2l-0.36,1.18h8.08l1.13-0.95l0.82,0.95h5.63l-0.36-2.75l-1.12-1.99
		C372.84,286.63,371.3,286.92,369.58,285.52"/>
	<path class="st8" d="M393.43,283.31l-0.01,0.06l-9.3,6.41l0.49,1.1l7.65-0.66l0.71-1.23l0.45,1.07l5.65-1.31l-0.36-2.75l-1.12-1.99
		C396.68,284.42,395.15,284.72,393.43,283.31"/>
	<path class="st8" d="M368.61,204.79c0,0,7.82,25.3,13.63,45.67c2.96,10.37,8.86,31.99,8.86,31.99l7.63-0.25
		c0,0-0.2-13.43-6.94-44.33c-4.73-21.72-7.4-35.36-7.4-35.36L368.61,204.79z"/>
	<path class="st6" d="M397.56,283.92l-0.06-1.68l-4.09,0.14l0.08,1.11C395.22,284.88,396.49,284.34,397.56,283.92"/>
	<path class="st8" d="M379.22,134.26c2.97,1.24,15.74,15.42,15.74,34.8s-23.27,25.69-23.27,25.69l-2.28-4.33
		c0,0,17.48-14.11,10.71-28.96C373.47,146.88,366.69,129.02,379.22,134.26"/>
</g>
</svg>
