<?xml version="1.0" encoding="utf-8"?>
<!-- Generator: Adobe Illustrator 24.1.3, SVG Export Plug-In . SVG Version: 6.00 Build 0)  -->
<svg version="1.1" id="Calque_1" xmlns="http://www.w3.org/2000/svg" xmlns:xlink="http://www.w3.org/1999/xlink" x="0px" y="0px"
	 viewBox="0 0 40 40" style="enable-background:new 0 0 40 40;" xml:space="preserve">
<style type="text/css">
	.st0{fill:#00385f;}
	.st1{fill:#FFFFFF;}
</style>
<rect class="st0" width="40" height="40"/>
<g>
	<path class="st1" d="M27.55,18H22v-5.55C22,12.2,21.8,12,21.55,12h-3.1C18.2,12,18,12.2,18,12.45V18h-5.55
		C12.2,18,12,18.2,12,18.45v3.1C12,21.8,12.2,22,12.45,22H18v5.55C18,27.8,18.2,28,18.45,28h3.1C21.8,28,22,27.8,22,27.55V22h5.55
		C27.8,22,28,21.8,28,21.55v-3.1C28,18.2,27.8,18,27.55,18"/>
</g>
</svg>
