<?xml version="1.0" encoding="utf-8"?>
<!-- Generator: Adobe Illustrator 24.1.3, SVG Export Plug-In . SVG Version: 6.00 Build 0)  -->
<svg version="1.1" id="Calque_1" xmlns="http://www.w3.org/2000/svg" xmlns:xlink="http://www.w3.org/1999/xlink" x="0px" y="0px"
	 viewBox="0 0 51.95 51.94" style="enable-background:new 0 0 51.95 51.94;" xml:space="preserve">
<style type="text/css">
	.st0{fill:#000000;}
	.st1{clip-path:url(#SVGID_2_);fill:#FFFFFF;}
</style>
<path class="st0" d="M0,25.97C0,11.63,11.63,0,25.97,0c14.35,0,25.97,11.63,25.97,25.97S40.31,51.94,25.97,51.94
	C11.63,51.94,0,40.31,0,25.97"/>
<g>
	<g>
		<defs>
			<path id="SVGID_1_" d="M0.01,25.97c0,14.34,11.63,25.97,25.97,25.97s25.97-11.63,25.97-25.97S40.32,0,25.98,0
				C11.63-0.01,0.01,11.62,0.01,25.97"/>
		</defs>
		<clipPath id="SVGID_2_">
			<use xlink:href="#SVGID_1_"  style="overflow:visible;"/>
		</clipPath>
		<path class="st1" d="M22.04,41.57h6.28V25.83h4.39l0.47-5.27h-4.85v-3c0-1.24,0.25-1.73,1.45-1.73h3.4v-5.47h-4.35
			c-4.68,0-6.79,2.06-6.79,6v4.2h-3.27v5.33h3.27V41.57z"/>
	</g>
</g>
</svg>
