<?xml version="1.0" encoding="utf-8"?>
<!-- Generator: Adobe Illustrator 24.1.3, SVG Export Plug-In . SVG Version: 6.00 Build 0)  -->
<svg version="1.1" id="Calque_1" xmlns="http://www.w3.org/2000/svg" xmlns:xlink="http://www.w3.org/1999/xlink" x="0px" y="0px"
	 viewBox="0 0 51.94 51.94" style="enable-background:new 0 0 51.94 51.94;" xml:space="preserve">
<style type="text/css">
	.st0{fill:#000000;}
	.st1{fill:#FFFFFF;}
</style>
<path class="st0" d="M0,25.97C0,11.63,11.63,0,25.97,0c14.35,0,25.97,11.63,25.97,25.97S40.31,51.94,25.97,51.94
	C11.63,51.94,0,40.31,0,25.97"/>
<path class="st1" d="M21.51,38.22c-3.63,0-7-1.07-9.83-2.88c0.5,0.06,1.01,0.09,1.53,0.09c3.01,0,5.77-1.02,7.97-2.75
	c-2.81-0.05-5.18-1.9-5.99-4.45c0.39,0.07,0.79,0.11,1.21,0.11c0.59,0,1.15-0.08,1.69-0.22c-2.93-0.59-5.14-3.18-5.14-6.29v-0.08
	c0.87,0.48,1.86,0.77,2.91,0.8C14.14,21.4,13,19.44,13,17.21c0-1.17,0.32-2.28,0.87-3.23c3.16,3.88,7.89,6.43,13.22,6.7
	c-0.11-0.47-0.17-0.95-0.17-1.46c0-3.54,2.87-6.42,6.42-6.42c1.84,0,3.51,0.78,4.68,2.03c1.46-0.29,2.83-0.82,4.08-1.56
	c-0.48,1.5-1.5,2.76-2.82,3.55c1.3-0.16,2.53-0.5,3.68-1.01c-0.86,1.29-1.95,2.42-3.2,3.32c0.01,0.27,0.02,0.55,0.02,0.83
	C39.76,28.44,33.31,38.22,21.51,38.22"/>
</svg>
